risc_v/risc_v_tb.vcd
$date
	Sat May 30 16:49:22 2026
$end
$version
	Icarus Verilog
$end
$timescale
	1ps
$end
$scope module risc_v_tb $end
$var wire 32 ! cpuout [31:0] $end
$var reg 1 " clk $end
$var reg 32 # cpuin [31:0] $end
$var reg 1 $ reset $end
$scope module dut $end
$var wire 32 % A [31:0] $end
$var wire 1 " CLK $end
$var wire 32 & CPUIn [31:0] $end
$var wire 1 $ Reset $end
$var wire 32 ' SrcA [31:0] $end
$var wire 32 ( WD [31:0] $end
$var wire 32 ) WD3 [31:0] $end
$var wire 1 * WE3 $end
$var wire 1 + Zero $end
$var wire 32 , SrcB [31:0] $end
$var wire 2 - ResultSrc [1:0] $end
$var wire 32 . Result [31:0] $end
$var wire 1 / RegWrite $end
$var wire 32 0 RD2 [31:0] $end
$var wire 32 1 RD1 [31:0] $end
$var wire 32 2 RD [31:0] $end
$var wire 32 3 PCTarget [31:0] $end
$var wire 2 4 PCSrc [1:0] $end
$var wire 32 5 PCPlus4 [31:0] $end
$var wire 32 6 PCNext [31:0] $end
$var wire 32 7 PC [31:0] $end
$var wire 1 8 Negative $end
$var wire 1 9 MemWrite $end
$var wire 32 : Instr [31:0] $end
$var wire 3 ; ImmSrc [2:0] $end
$var wire 32 < ImmExt [31:0] $end
$var wire 32 = CPUOut [31:0] $end
$var wire 1 > ALUSrc $end
$var wire 32 ? ALUResult [31:0] $end
$var wire 5 @ ALUControl [4:0] $end
$var wire 5 A A3 [4:0] $end
$var wire 5 B A2 [4:0] $end
$var wire 5 C A1 [4:0] $end
$scope module arith_logic $end
$var wire 32 D A [31:0] $end
$var wire 32 E B [31:0] $end
$var wire 32 F y_and [31:0] $end
$var wire 32 G y_or [31:0] $end
$var wire 32 H y_sub [31:0] $end
$var wire 32 I y_srl [31:0] $end
$var wire 32 J y_slt [31:0] $end
$var wire 32 K y_sll [31:0] $end
$var wire 32 L y_add [31:0] $end
$var wire 1 + Zero $end
$var wire 1 8 Negative $end
$var wire 5 M ALUControl [4:0] $end
$var reg 32 N ALUResult [31:0] $end
$upscope $end
$scope module cu $end
$var wire 1 8 Negative $end
$var wire 1 + Zero $end
$var wire 7 O opcode [6:0] $end
$var wire 7 P funct7 [6:0] $end
$var wire 3 Q funct3 [2:0] $end
$var wire 1 / RegWrite $end
$var wire 1 9 MemWrite $end
$var wire 32 R Instr [31:0] $end
$var reg 5 S ALUControl [4:0] $end
$var reg 1 > ALUSrc $end
$var reg 3 T ImmSrc [2:0] $end
$var reg 2 U PCSrc [1:0] $end
$var reg 2 V ResultSrc [1:0] $end
$upscope $end
$scope module data_mem $end
$var wire 32 W A [31:0] $end
$var wire 1 " CLK $end
$var wire 32 X CPUIn [31:0] $end
$var wire 32 Y WD [31:0] $end
$var wire 1 9 WE $end
$var wire 1 Z RDsel $end
$var wire 32 [ RD [31:0] $end
$var reg 32 \ CPUOut [31:0] $end
$var reg 1 ] WEM $end
$var reg 1 ^ WEOut $end
$upscope $end
$scope module ext $end
$var wire 3 _ ImmSrc [2:0] $end
$var wire 32 ` imm4 [31:0] $end
$var wire 32 a imm3 [31:0] $end
$var wire 32 b imm2 [31:0] $end
$var wire 32 c imm1 [31:0] $end
$var wire 32 d imm0 [31:0] $end
$var wire 32 e Instr [31:0] $end
$var reg 32 f ImmExt [31:0] $end
$upscope $end
$scope module instr_mem $end
$var wire 32 g Instr [31:0] $end
$var wire 32 h PC_divided_by_4 [31:0] $end
$var wire 32 i PC [31:0] $end
$upscope $end
$scope module prog_count $end
$var wire 1 " CLK $end
$var wire 32 j PCNext [31:0] $end
$var wire 1 $ Reset $end
$var reg 32 k PC [31:0] $end
$upscope $end
$scope module register $end
$var wire 5 l A1 [4:0] $end
$var wire 5 m A2 [4:0] $end
$var wire 5 n A3 [4:0] $end
$var wire 1 " CLK $end
$var wire 32 o WD3 [31:0] $end
$var wire 1 * WE3 $end
$var wire 32 p RD2 [31:0] $end
$var wire 32 q RD1 [31:0] $end
$upscope $end
$upscope $end
$upscope $end
$enddefinitions $end
$comment Show the parameter values. $end
$dumpall
$end
#0
$dumpvars
bx q
bx p
bx o
bx n
bx m
bx l
bx k
bx j
bx i
bx h
bx g
bx f
bx e
bx d
bx c
bx0 b
bx000000000000 a
bx0 `
bx _
0^
0]
bx \
bx [
xZ
bx Y
b10100 X
bx W
bx V
bx U
bx T
bx S
bx R
bx Q
bx P
bx O
bx N
bx M
bx L
bx K
b0x J
bx I
bx H
bx G
bx F
bx E
bx D
bx C
bx B
bx A
bx @
bx ?
x>
bx =
bx <
bx ;
bx :
x9
x8
bx 7
bx 6
bx 5
bx 4
bx 3
bx 2
bx 1
bx 0
x/
bx .
bx -
bx ,
x+
x*
bx )
bx (
bx '
b10100 &
bx %
1$
b10100 #
0"
bx !
$end
#5000
0Z
08
b110010 )
b110010 o
b110010 .
b110010 G
b1 J
0+
b110010 %
b110010 W
b110010 ?
b110010 N
09
1*
1/
b110010 L
b11111111111111111111111111001110 H
b0 K
b0 I
b110010 ,
b110010 E
b100 6
b100 j
b0 F
b110010 3
b110010 <
b110010 f
bx0x10 @
bx0x10 M
bx0x10 S
b0 4
b0 U
b0 -
b0 V
1>
b0 ;
b0 T
b0 _
b0 '
b0 D
b0 1
b0 q
b110010 `
b11001000000000000000000000 a
b100000100000 b
b100001 c
b110010 d
b1 P
b0 Q
b10011 O
b1 A
b1 n
b10010 B
b10010 m
b0 C
b0 l
b11001000000000000010010011 :
b11001000000000000010010011 R
b11001000000000000010010011 e
b11001000000000000010010011 g
b0 h
b100 5
b0 7
b0 i
b0 k
1"
#10000
0"
0$
#15000
b10000000000000000000000000000000 )
b10000000000000000000000000000000 o
b10000000000000000000000000000000 .
xZ
bx0000000000000000000000000000000 G
b0x J
x8
bx L
bx H
bx K
bx I
bx0000000000000000000000000000000 ,
bx0000000000000000000000000000000 E
x+
bx %
bx W
bx ?
bx N
b10000000000000000000000000000000 <
b10000000000000000000000000000000 f
b11 -
b11 V
bx @
bx M
bx S
x>
b11 ;
b11 T
b11 _
b0 (
b0 Y
b0 0
b0 p
b11111111111100000000000000000000 `
b10000000000000000000000000000000 a
b11111111111111111111000000001010 b
b11111111111111111111100000001010 c
b11111111111111111111100000000000 d
b1000000 P
b110111 O
b1010 A
b1010 n
b0 B
b0 m
b1000 6
b1000 j
b10000000000000000000010100110111 :
b10000000000000000000010100110111 R
b10000000000000000000010100110111 e
b10000000000000000000010100110111 g
b1 h
b10000000000000000000000000000100 3
b1000 5
b100 7
b100 i
b100 k
1"
#20000
0"
#25000
b10100 2
b10100 [
1Z
08
b1 J
0+
b1111111111111111111111111111100 %
b1111111111111111111111111111100 W
b1111111111111111111111111111100 ?
b1111111111111111111111111111100 N
b10100 )
b10100 o
b10100 .
b1111111111111111111111111111100 L
b10000000000000000000000000000100 H
b0 K
b0 I
b11111111111111111111111111111100 ,
b11111111111111111111111111111100 E
b11111111111111111111111111111100 G
b10000000000000000000000000000000 F
b11111111111111111111111111111100 <
b11111111111111111111111111111100 f
b1 -
b1 V
bx0x10 @
bx0x10 M
bx0x10 S
1>
b0 ;
b0 T
b0 _
bx (
bx Y
bx 0
bx p
b10000000000000000000000000000000 '
b10000000000000000000000000000000 D
b10000000000000000000000000000000 1
b10000000000000000000000000000000 q
b11111111111101010010011111111100 `
b11111111110001010010000000000000 a
b11111111111111111111011111100010 b
b11111111111111111111111111100010 c
b11111111111111111111111111111100 d
b1111111 P
b10 Q
b11 O
b10 A
b10 n
b11100 B
b11100 m
b1010 C
b1010 l
b1100 6
b1100 j
b11111111110001010010000100000011 :
b11111111110001010010000100000011 R
b11111111110001010010000100000011 e
b11111111110001010010000100000011 g
b10 h
b100 3
b1100 5
b1000 7
b1000 i
b1000 k
1"
#30000
0"
#35000
bx 2
bx [
0Z
b11001000000000000000000000 K
b10100 ,
b10100 E
b11110 )
b11110 o
b11110 .
b110110 G
b10000 F
b0 J
b11110 %
b11110 W
b11110 ?
b11110 N
bx1x10 @
bx1x10 M
bx1x10 S
b0 -
b0 V
0>
bx ;
bx T
bx _
b10100 (
b10100 Y
b10100 0
b10100 p
b1000110 L
b11110 H
b110010 '
b110010 D
b110010 1
b110010 q
b1000010000000010 `
b1000000001000001000000000000000 a
b110000000010 b
b10000000011 c
b10000000010 d
b100000 P
b0 Q
b110011 O
b11 A
b11 n
b10 B
b10 m
b1 C
b1 l
b10000 6
b10000 j
b1000000001000001000000110110011 :
b1000000001000001000000110110011 R
b1000000001000001000000110110011 e
b1000000001000001000000110110011 g
b11 h
b1000 3
b10000 5
b1100 7
b1100 i
b1100 k
1"
#40000
0"
#45000
b10100 2
b10100 [
1Z
1^
b1 J
0]
19
0*
0/
08
bx1x100 )
bx1x100 o
bx1x100 .
b11111111111111111111111111111100 ,
b11111111111111111111111111111100 E
b11111111111111111111111111111100 G
b10000000000000000000000000000000 F
b1111111111111111111111111111100 %
b1111111111111111111111111111100 W
b1111111111111111111111111111100 ?
b1111111111111111111111111111100 N
bx -
bx V
bx0x10 @
bx0x10 M
bx0x10 S
1>
b1 ;
b1 T
b1 _
b11110 (
b11110 Y
b11110 0
b11110 p
b1111111111111111111111111111100 L
b10000000000000000000000000000100 H
b0 K
b0 I
b10000000000000000000000000000000 '
b10000000000000000000000000000000 D
b10000000000000000000000000000000 1
b10000000000000000000000000000000 q
b11111111111101010010111111100010 `
b11111110001101010010000000000000 a
b11111111111111111111011111111100 b
b11111111111111111111111111111100 c
b11111111111111111111111111100011 d
b1111111 P
b10 Q
b100011 O
b11100 A
b11100 n
b11 B
b11 m
b1010 C
b1010 l
b10100 6
b10100 j
b11111110001101010010111000100011 :
b11111110001101010010111000100011 R
b11111110001101010010111000100011 e
b11111110001101010010111000100011 g
b100 h
b1100 3
b10100 5
b10000 7
b10000 i
b10000 k
1"
#50000
0"
#55000
bx 2
bx [
b1 4
b1 U
0Z
b0 G
09
1+
0]
0^
b0 ,
b0 E
b0 F
b0 J
b0 %
b0 W
b0 ?
b0 N
bx )
bx o
bx .
b0 <
b0 f
bx1x10 @
bx1x10 M
bx1x10 S
0>
b10 ;
b10 T
b10 _
b0 (
b0 Y
b0 0
b0 p
b0 L
b0 H
b0 '
b0 D
b0 1
b0 q
b0 `
b0 a
b0 b
b0 c
b0 d
b0 P
b0 Q
b1100011 O
b0 A
b0 n
b0 B
b0 m
b0 C
b0 l
b10100 6
b10100 j
b11110 !
b11110 =
b11110 \
b1100011 :
b1100011 R
b1100011 e
b1100011 g
b101 h
b10100 3
b11000 5
b10100 7
b10100 i
b10100 k
1"
#60000
0"
#65000
1"
#70000
0"
b1111 #
b1111 &
b1111 X
1$
#75000
0Z
1*
1/
08
b110010 G
b1 J
0+
b110010 %
b110010 W
b110010 ?
b110010 N
b110010 )
b110010 o
b110010 .
b110010 L
b11111111111111111111111111001110 H
b0 K
b0 I
b110010 ,
b110010 E
b110010 <
b110010 f
bx0x10 @
bx0x10 M
bx0x10 S
b0 4
b0 U
b0 -
b0 V
1>
b0 ;
b0 T
b0 _
bx (
bx Y
bx 0
bx p
b100 6
b100 j
b110010 `
b11001000000000000000000000 a
b100000100000 b
b100001 c
b110010 d
b1 P
b10011 O
b1 A
b1 n
b10010 B
b10010 m
b11001000000000000010010011 :
b11001000000000000010010011 R
b11001000000000000010010011 e
b11001000000000000010010011 g
b0 h
b110010 3
b100 5
b0 7
b0 i
b0 k
1"
#80000
0"
0$
#85000
b10000000000000000000000000000000 )
b10000000000000000000000000000000 o
b10000000000000000000000000000000 .
xZ
bx0000000000000000000000000000000 G
b0x J
x8
bx L
bx H
bx K
bx I
bx0000000000000000000000000000000 ,
bx0000000000000000000000000000000 E
x+
bx %
bx W
bx ?
bx N
b10000000000000000000000000000000 <
b10000000000000000000000000000000 f
b11 -
b11 V
bx @
bx M
bx S
x>
b11 ;
b11 T
b11 _
b0 (
b0 Y
b0 0
b0 p
b11111111111100000000000000000000 `
b10000000000000000000000000000000 a
b11111111111111111111000000001010 b
b11111111111111111111100000001010 c
b11111111111111111111100000000000 d
b1000000 P
b110111 O
b1010 A
b1010 n
b0 B
b0 m
b1000 6
b1000 j
b10000000000000000000010100110111 :
b10000000000000000000010100110111 R
b10000000000000000000010100110111 e
b10000000000000000000010100110111 g
b1 h
b10000000000000000000000000000100 3
b1000 5
b100 7
b100 i
b100 k
1"
#90000
0"
#95000
b1111 2
b1111 [
1Z
08
b1 J
0+
b1111111111111111111111111111100 %
b1111111111111111111111111111100 W
b1111111111111111111111111111100 ?
b1111111111111111111111111111100 N
b1111 )
b1111 o
b1111 .
b1111111111111111111111111111100 L
b10000000000000000000000000000100 H
b0 K
b0 I
b11111111111111111111111111111100 ,
b11111111111111111111111111111100 E
b11111111111111111111111111111100 G
b10000000000000000000000000000000 F
b11111111111111111111111111111100 <
b11111111111111111111111111111100 f
b1 -
b1 V
bx0x10 @
bx0x10 M
bx0x10 S
1>
b0 ;
b0 T
b0 _
bx (
bx Y
bx 0
bx p
b10000000000000000000000000000000 '
b10000000000000000000000000000000 D
b10000000000000000000000000000000 1
b10000000000000000000000000000000 q
b11111111111101010010011111111100 `
b11111111110001010010000000000000 a
b11111111111111111111011111100010 b
b11111111111111111111111111100010 c
b11111111111111111111111111111100 d
b1111111 P
b10 Q
b11 O
b10 A
b10 n
b11100 B
b11100 m
b1010 C
b1010 l
b1100 6
b1100 j
b11111111110001010010000100000011 :
b11111111110001010010000100000011 R
b11111111110001010010000100000011 e
b11111111110001010010000100000011 g
b10 h
b100 3
b1100 5
b1000 7
b1000 i
b1000 k
1"
#100000
0"
#105000
bx 2
bx [
0Z
b110010000000000000000 K
b1111 ,
b1111 E
b100011 )
b100011 o
b100011 .
b111111 G
b10 F
b0 J
b100011 %
b100011 W
b100011 ?
b100011 N
bx1x10 @
bx1x10 M
bx1x10 S
b0 -
b0 V
0>
bx ;
bx T
bx _
b1111 (
b1111 Y
b1111 0
b1111 p
b1000001 L
b100011 H
b110010 '
b110010 D
b110010 1
b110010 q
b1000010000000010 `
b1000000001000001000000000000000 a
b110000000010 b
b10000000011 c
b10000000010 d
b100000 P
b0 Q
b110011 O
b11 A
b11 n
b10 B
b10 m
b1 C
b1 l
b10000 6
b10000 j
b1000000001000001000000110110011 :
b1000000001000001000000110110011 R
b1000000001000001000000110110011 e
b1000000001000001000000110110011 g
b11 h
b1000 3
b10000 5
b1100 7
b1100 i
b1100 k
1"
#110000
0"
#115000
b1111 2
b1111 [
1Z
1^
b1 J
0]
19
0*
0/
08
bx1xx )
bx1xx o
bx1xx .
b11111111111111111111111111111100 ,
b11111111111111111111111111111100 E
b11111111111111111111111111111100 G
b10000000000000000000000000000000 F
b1111111111111111111111111111100 %
b1111111111111111111111111111100 W
b1111111111111111111111111111100 ?
b1111111111111111111111111111100 N
bx -
bx V
bx0x10 @
bx0x10 M
bx0x10 S
1>
b1 ;
b1 T
b1 _
b100011 (
b100011 Y
b100011 0
b100011 p
b1111111111111111111111111111100 L
b10000000000000000000000000000100 H
b0 K
b0 I
b10000000000000000000000000000000 '
b10000000000000000000000000000000 D
b10000000000000000000000000000000 1
b10000000000000000000000000000000 q
b11111111111101010010111111100010 `
b11111110001101010010000000000000 a
b11111111111111111111011111111100 b
b11111111111111111111111111111100 c
b11111111111111111111111111100011 d
b1111111 P
b10 Q
b100011 O
b11100 A
b11100 n
b11 B
b11 m
b1010 C
b1010 l
b10100 6
b10100 j
b11111110001101010010111000100011 :
b11111110001101010010111000100011 R
b11111110001101010010111000100011 e
b11111110001101010010111000100011 g
b100 h
b1100 3
b10100 5
b10000 7
b10000 i
b10000 k
1"
#120000
0"
#125000
bx 2
bx [
b1 4
b1 U
0Z
b0 G
09
1+
0]
0^
b0 ,
b0 E
b0 F
b0 J
b0 %
b0 W
b0 ?
b0 N
bx )
bx o
bx .
b0 <
b0 f
bx1x10 @
bx1x10 M
bx1x10 S
0>
b10 ;
b10 T
b10 _
b0 (
b0 Y
b0 0
b0 p
b0 L
b0 H
b0 '
b0 D
b0 1
b0 q
b0 `
b0 a
b0 b
b0 c
b0 d
b0 P
b0 Q
b1100011 O
b0 A
b0 n
b0 B
b0 m
b0 C
b0 l
b10100 6
b10100 j
b1100011 :
b1100011 R
b1100011 e
b1100011 g
b101 h
b10100 3
b11000 5
b10100 7
b10100 i
b10100 k
b100011 !
b100011 =
b100011 \
1"
